…
7. As measured by the data, which snake species has the smallest homerange? Show all of your work, please. Look this species up online and tell me about it! 


```r
snake <- homerange %>%
  select(mean.hra.m2, taxon, order, family, genus, species) %>%
  filter(taxon == "snakes") %>%
  arrange(mean.hra.m2)

snake
```

```
## # A tibble: 41 x 6
##    mean.hra.m2 taxon  order    family     genus       species     
##          <dbl> <fct>  <fct>    <chr>      <chr>       <chr>       
##  1        200  snakes squamata viperidae  bitis       schneideri  
##  2        253  snakes squamata colubridae carphopis   viridis     
##  3        600  snakes squamata colubridae thamnophis  butleri     
##  4        700  snakes squamata colubridae carphopis   vermis      
##  5       2400  snakes squamata viperidae  vipera      latastei    
##  6       2614. snakes squamata viperidae  gloydius    shedaoensis 
##  7       6476  snakes squamata colubridae diadophis   punctatus   
##  8      10655  snakes squamata viperidae  agkistrodon piscivorous 
##  9      15400  snakes squamata colubridae oocatochus  rufodorsatus
## 10      17400  snakes squamata colubridae pituophis   catenifer   
## # ... with 31 more rows
```
…
8. You suspect that homerange and mass are correlated in birds. We need a ratio that facilitates exploration of this prediction. First, build a new dataframe called `hra_ratio` that is limited to genus, species, mean.mass.g, log10.mass, log10.hra. Arrange it in ascending order by mean mass in grams.


```r
hra_ratio <- homerange %>%
  filter(taxon == "birds") %>%
  select(genus, species, mean.mass.g, log10.mass, log10.hra) %>%
  arrange(mean.mass.g)

hra_ratio
```

```
## # A tibble: 140 x 5
##    genus        species      mean.mass.g log10.mass log10.hra
##    <chr>        <chr>              <dbl>      <dbl>     <dbl>
##  1 regulus      regulus             5.15      0.712      4.30
##  2 regulus      ignicapillus        5.3       0.724      4.22
##  3 phylloscopus bonelli             7.5       0.875      4.54
##  4 aegithalos   caudatus            8         0.903      4.62
##  5 vireo        atricapillus        8.5       0.929      4.18
##  6 setophaga    magnolia            8.6       0.934      3.86
##  7 certhia      familiaris          8.77      0.943      4.67
##  8 sylvia       undata              8.8       0.944      3.45
##  9 setophaga    ruticilla           9         0.954      3.29
## 10 setophaga    virens              9         0.954      3.81
## # ... with 130 more rows
```

9. Replace the existing `hra_ratio` dataframe with a new dataframe that adds a column calculating the ratio of log 10 hra to log 10 mass. Call it `hra.mass.ratio`. Arrange it in descending order by mean mass in grams.


```r
  hra_ratio <- hra_ratio %>%
  mutate(hra.mass.ratio = log10.hra/log10.mass) %>%
  select(genus, species, mean.mass.g, log10.mass, log10.hra,hra.mass.ratio) %>%
  arrange(desc(mean.mass.g))

hra_ratio
```

```
## # A tibble: 140 x 6
##    genus      species      mean.mass.g log10.mass log10.hra hra.mass.ratio
##    <chr>      <chr>              <dbl>      <dbl>     <dbl>          <dbl>
##  1 struthio   camelus            88250       4.95      7.93           1.60
##  2 rhea       americana          25000       4.40      6.39           1.45
##  3 rhea       pennata            15000       4.18      7.38           1.77
##  4 aquila     chrysaetos          3000       3.48      7.44           2.14
##  5 tetrao     urogallus           2936       3.47      6.74           1.94
##  6 apteryx    australis           2320       3.37      5.67           1.68
##  7 neophron   percnopterus        2203       3.34      7.80           2.33
##  8 bubo       bubo                2191       3.34      7.20           2.16
##  9 hieraaetus fasciatus           2049       3.31      7.29           2.20
## 10 strigops   habroptilus         1941       3.29      5.29           1.61
## # ... with 130 more rows
```
…
