…
```
## See spec(...) for full column specifications.
```

```r
fisheries
```

```
## # A tibble: 17,692 x 71
##    Country `Common name` `ISSCAAP group#` `ISSCAAP taxono~ `ASFIS species#`
##    <chr>   <chr>                    <dbl> <chr>            <chr>           
##  1 Albania Angelsharks,~               38 Sharks, rays, c~ 10903XXXXX      
##  2 Albania Atlantic bon~               36 Tunas, bonitos,~ 1750100101      
##  3 Albania Barracudas n~               37 Miscellaneous p~ 17710001XX      
##  4 Albania Blue and red~               45 Shrimps, prawns  2280203101      
##  5 Albania Blue whiting~               32 Cods, hakes, ha~ 1480403301      
##  6 Albania Bluefish                    37 Miscellaneous p~ 1702021301      
##  7 Albania Bogue                       33 Miscellaneous c~ 1703926101      
##  8 Albania Caramote pra~               45 Shrimps, prawns  2280100117      
##  9 Albania Catsharks, n~               38 Sharks, rays, c~ 10801003XX      
## 10 Albania Common cuttl~               57 Squids, cuttlef~ 3210200202      
## # ... with 17,682 more rows, and 66 more variables: `ASFIS species
## #   name` <chr>, `FAO major fishing area` <dbl>, Measure <chr>,
## #   `1950` <chr>, `1951` <chr>, `1952` <chr>, `1953` <chr>, `1954` <chr>,
## #   `1955` <chr>, `1956` <chr>, `1957` <chr>, `1958` <chr>, `1959` <chr>,
## #   `1960` <chr>, `1961` <chr>, `1962` <chr>, `1963` <chr>, `1964` <chr>,
## #   `1965` <chr>, `1966` <chr>, `1967` <chr>, `1968` <chr>, `1969` <chr>,
## #   `1970` <chr>, `1971` <chr>, `1972` <chr>, `1973` <chr>, `1974` <chr>,
## #   `1975` <chr>, `1976` <chr>, `1977` <chr>, `1978` <chr>, `1979` <chr>,
## #   `1980` <chr>, `1981` <chr>, `1982` <chr>, `1983` <chr>, `1984` <chr>,
…
fisheries
```

```
## # A tibble: 17,692 x 71
##    country commname ISSCAAP_spgroup ISSCAAP_spgroup~ ASFIS_spcode
##    <chr>   <chr>              <dbl> <chr>            <chr>       
##  1 Albania Angelsh~              38 Sharks, rays, c~ 10903XXXXX  
##  2 Albania Atlanti~              36 Tunas, bonitos,~ 1750100101  
##  3 Albania Barracu~              37 Miscellaneous p~ 17710001XX  
##  4 Albania Blue an~              45 Shrimps, prawns  2280203101  
##  5 Albania Blue wh~              32 Cods, hakes, ha~ 1480403301  
##  6 Albania Bluefish              37 Miscellaneous p~ 1702021301  
##  7 Albania Bogue                 33 Miscellaneous c~ 1703926101  
##  8 Albania Caramot~              45 Shrimps, prawns  2280100117  
##  9 Albania Catshar~              38 Sharks, rays, c~ 10801003XX  
## 10 Albania Common ~              57 Squids, cuttlef~ 3210200202  
## # ... with 17,682 more rows, and 66 more variables: ASFIS_sciname <chr>,
## #   FAO_area <dbl>, unit <chr>, `1950` <dbl>, `1951` <dbl>, `1952` <dbl>,
## #   `1953` <dbl>, `1954` <dbl>, `1955` <dbl>, `1956` <dbl>, `1957` <dbl>,
## #   `1958` <dbl>, `1959` <dbl>, `1960` <dbl>, `1961` <dbl>, `1962` <dbl>,
## #   `1963` <dbl>, `1964` <dbl>, `1965` <dbl>, `1966` <dbl>, `1967` <dbl>,
## #   `1968` <dbl>, `1969` <dbl>, `1970` <dbl>, `1971` <dbl>, `1972` <dbl>,
## #   `1973` <dbl>, `1974` <dbl>, `1975` <dbl>, `1976` <dbl>, `1977` <dbl>,
## #   `1978` <dbl>, `1979` <dbl>, `1980` <dbl>, `1981` <dbl>, `1982` <dbl>,
## #   `1983` <dbl>, `1984` <dbl>, `1985` <dbl>, `1986` <dbl>, `1987` <dbl>,
…
```r
fisheries_tidy <- fisheries %>% 
  pivot_longer(`1950`:`2012`,
               names_to = "year", 
               values_to = "catch",
               values_drop_na = TRUE
               )

fisheries_tidy
```

```
## # A tibble: 342,121 x 10
##    country commname ISSCAAP_spgroup ISSCAAP_spgroup~ ASFIS_spcode
##    <chr>   <chr>              <dbl> <chr>            <chr>       
##  1 Albania Angelsh~              38 Sharks, rays, c~ 10903XXXXX  
##  2 Albania Angelsh~              38 Sharks, rays, c~ 10903XXXXX  
##  3 Albania Angelsh~              38 Sharks, rays, c~ 10903XXXXX  
##  4 Albania Angelsh~              38 Sharks, rays, c~ 10903XXXXX  
##  5 Albania Angelsh~              38 Sharks, rays, c~ 10903XXXXX  
##  6 Albania Angelsh~              38 Sharks, rays, c~ 10903XXXXX  
##  7 Albania Angelsh~              38 Sharks, rays, c~ 10903XXXXX  
##  8 Albania Angelsh~              38 Sharks, rays, c~ 10903XXXXX  
##  9 Albania Angelsh~              38 Sharks, rays, c~ 10903XXXXX  
## 10 Albania Angelsh~              38 Sharks, rays, c~ 10903XXXXX  
## # ... with 342,111 more rows, and 5 more variables: ASFIS_sciname <chr>,
## #   FAO_area <dbl>, unit <chr>, year <chr>, catch <dbl>
```

9. Refocus the data only to include country, ISSCAAP_spgroupname, ASFIS_spcode, ASFIS_sciname, year, and catch.


```r
fisheries_tidy2 <- fisheries_tidy %>%
  select(country, ISSCAAP_spgroupname, ASFIS_spcode, ASFIS_sciname, year, catch)

fisheries_tidy2
```

```
## # A tibble: 342,121 x 6
##    country ISSCAAP_spgroupname     ASFIS_spcode ASFIS_sciname year  catch
##    <chr>   <chr>                   <chr>        <chr>         <chr> <dbl>
##  1 Albania Sharks, rays, chimaeras 10903XXXXX   Squatinidae   1996     53
##  2 Albania Sharks, rays, chimaeras 10903XXXXX   Squatinidae   1997     20
##  3 Albania Sharks, rays, chimaeras 10903XXXXX   Squatinidae   1998     31
##  4 Albania Sharks, rays, chimaeras 10903XXXXX   Squatinidae   1999     30
##  5 Albania Sharks, rays, chimaeras 10903XXXXX   Squatinidae   2000     30
##  6 Albania Sharks, rays, chimaeras 10903XXXXX   Squatinidae   2001     16
##  7 Albania Sharks, rays, chimaeras 10903XXXXX   Squatinidae   2002     79
##  8 Albania Sharks, rays, chimaeras 10903XXXXX   Squatinidae   2003      1
##  9 Albania Sharks, rays, chimaeras 10903XXXXX   Squatinidae   2004      4
## 10 Albania Sharks, rays, chimaeras 10903XXXXX   Squatinidae   2005     68
## # ... with 342,111 more rows
```
…
```r
catch_by_country <- fisheries_tidy %>%
  select(country, catch, year) %>%
  filter(year == 2000) %>%
  group_by(country) %>%
  summarize(catch_total = sum(catch, na.rm = T)) %>%
  arrange(desc(catch_total))

catch_by_country
```

```
## # A tibble: 173 x 2
##    country                  catch_total
##    <chr>                          <dbl>
##  1 Peru                        10625010
##  2 Japan                        4921013
##  3 United States of America     4692229
##  4 Chile                        4297928
##  5 Indonesia                    3761769
##  6 Russian Federation           3678828
##  7 Thailand                     2795719
##  8 India                        2760632
##  9 Norway                       2698506
## 10 Iceland                      1982369
## # ... with 163 more rows
```
…
13. Which country caught the most sardines (_Sardina_) between the years 1990-2000?


```r
fisheries_tidy2 %>%
  select(country, year, ASFIS_sciname, catch) %>%
  filter(str_detect(ASFIS_sciname, "Sardina")) %>%
  filter(year >= "1990" & year <= "2000") %>%
  group_by(country) %>%
  summarize(catch = sum(catch)) %>%
  arrange(desc(catch))
```

```
## # A tibble: 36 x 2
##    country              catch
##    <chr>                <dbl>
##  1 Morocco            4785190
##  2 Spain              1425317
##  3 Russian Federation 1035139
##  4 Portugal            926318
##  5 Ukraine             784730
##  6 Italy               377907
##  7 Algeria             311733
##  8 Turkey              273565
##  9 France              263871
## 10 Denmark             242017
## # ... with 26 more rows
```
…
```r
#cephalopods include Squids, cuttlefishes, octopuses

fisheries_tidy2 %>%
  select(country, catch, year, ISSCAAP_spgroupname) %>%
  filter(year >= "2008" & year <= "2012") %>%
  filter(str_detect(ISSCAAP_spgroupname, "Squids, cuttlefishes, octopuses")) %>%
  group_by(country) %>%
  summarize(catch = sum(catch)) %>%
  arrange(desc(catch))
```

```
## # A tibble: 112 x 2
##    country                    catch
##    <chr>                      <dbl>
##  1 China                    4785139
##  2 Peru                     2274232
##  3 Korea, Republic of       1535454
##  4 Japan                    1394041
##  5 Chile                     723186
##  6 Indonesia                 684567
##  7 United States of America  613400
##  8 Thailand                  603529
##  9 Taiwan Province of China  593638
## 10 Argentina                 587238
## # ... with 102 more rows
```
…
15. Given the top five countries from question 12 above, which species was the highest catch total? The lowest?


```r
fisheries_tidy2 %>%
  filter(str_detect(ISSCAAP_spgroupname, "Squids, cuttlefishes, octopuses")) %>% 
  filter(year >= "2008" & year <= "2012") %>%
  group_by(ASFIS_sciname) %>%
  summarize(catch_total = sum(catch, na.rm = T)) %>%
  arrange((catch_total))
```

```
## # A tibble: 31 x 2
##    ASFIS_sciname           catch_total
##    <chr>                         <dbl>
##  1 Todarodes filippovae              1
##  2 Martialia hyadesi                 4
##  3 Moroteuthis ingens              194
##  4 Loligo vulgaris                 398
##  5 Eledone cirrhosa                920
##  6 Loligo duvauceli               1843
##  7 Loligo forbesi                 2567
##  8 Todarodes sagittatus           5073
##  9 Illex coindetii               20209
## 10 Sepioteuthis lessoniana       28547
## # ... with 21 more rows
```


16. In some cases, the taxonomy of the fish being caught is unclear. Make a new data frame called `coastal_fish` that shows the taxonomic composition of "Miscellaneous coastal fishes" within the ISSCAAP_spgroupname column.


```r
coastal_fish <- fisheries_tidy2 %>%
  filter(str_detect(ISSCAAP_spgroupname, "Miscellaneous coastal fishes"))
 
coastal_fish
```

```
## # A tibble: 63,236 x 6
##    country ISSCAAP_spgroupname       ASFIS_spcode ASFIS_sciname year  catch
##    <chr>   <chr>                     <chr>        <chr>         <chr> <dbl>
##  1 Albania Miscellaneous coastal fi~ 1703926101   Boops boops   1983    559
##  2 Albania Miscellaneous coastal fi~ 1703926101   Boops boops   1984    392
##  3 Albania Miscellaneous coastal fi~ 1703926101   Boops boops   1985    406
##  4 Albania Miscellaneous coastal fi~ 1703926101   Boops boops   1986    499
##  5 Albania Miscellaneous coastal fi~ 1703926101   Boops boops   1987    564
##  6 Albania Miscellaneous coastal fi~ 1703926101   Boops boops   1988    724
##  7 Albania Miscellaneous coastal fi~ 1703926101   Boops boops   1989    583
##  8 Albania Miscellaneous coastal fi~ 1703926101   Boops boops   1990    754
##  9 Albania Miscellaneous coastal fi~ 1703926101   Boops boops   1991    283
## 10 Albania Miscellaneous coastal fi~ 1703926101   Boops boops   1992    196
## # ... with 63,226 more rows
```
…
```r
#The osteichthyes, or bony fish, represent the largest taxonomic class of vertebrates in the modern world.

most_caught <- fisheries_tidy2 %>%
  filter(str_detect(ASFIS_sciname, "Osteichthyes")) %>%
  group_by(country) %>%
  summarize(catch = sum(catch)) %>%
  arrange(desc(catch))
 
most_caught
```

```
## # A tibble: 189 x 2
##    country               catch
##    <chr>                 <dbl>
##  1 China              81794211
##  2 Thailand           43130604
##  3 Myanmar            37368145
##  4 Viet Nam           33142032
##  5 Japan              26355662
##  6 Indonesia          18663279
##  7 India              16469387
##  8 Malaysia           13367312
##  9 Un. Sov. Soc. Rep.  8116661
## 10 Mexico              7694907
## # ... with 179 more rows
```
…
