…
life_2007 <- gapminder %>%
  group_by(year) %>%
  select(lifeExp, year)%>%
  filter(year == 2007)
```


```r
life_2007
```

```
## # A tibble: 142 x 2
## # Groups:   year [1]
##    lifeExp  year
##      <dbl> <int>
##  1    43.8  2007
##  2    76.4  2007
##  3    72.3  2007
##  4    42.7  2007
##  5    75.3  2007
##  6    81.2  2007
##  7    79.8  2007
##  8    75.6  2007
##  9    64.1  2007
## 10    79.4  2007
## # ... with 132 more rows
```


```r
life_1952
```

```
## # A tibble: 142 x 2
##    lifeExp  year
##      <dbl> <int>
##  1    28.8  1952
##  2    55.2  1952
##  3    43.1  1952
##  4    30.0  1952
##  5    62.5  1952
##  6    69.1  1952
##  7    66.8  1952
##  8    50.9  1952
##  9    37.5  1952
## 10    68    1952
## # ... with 132 more rows
```
…
**4. Your answer above doesn't tell the whole story since life expectancy varies by region. Make a summary that shows the min, mean, and max life expectancy by continent for all years represented in the data.**


```r
continent_lifeExp <- gapminder %>% 
  group_by(continent, year) %>% 
  summarize(min_lifeExp =min(lifeExp),
            max_lifeExp =max(lifeExp),
            mean_lifeExp =mean(lifeExp))

continent_lifeExp
```

```
## # A tibble: 60 x 5
## # Groups:   continent [5]
##    continent  year min_lifeExp max_lifeExp mean_lifeExp
##    <fct>     <int>       <dbl>       <dbl>        <dbl>
##  1 Africa     1952        30          52.7         39.1
##  2 Africa     1957        31.6        58.1         41.3
##  3 Africa     1962        32.8        60.2         43.3
##  4 Africa     1967        34.1        61.6         45.3
##  5 Africa     1972        35.4        64.3         47.5
##  6 Africa     1977        36.8        67.1         49.6
##  7 Africa     1982        38.4        69.9         51.6
##  8 Africa     1987        39.9        71.9         53.3
##  9 Africa     1992        23.6        73.6         53.6
## 10 Africa     1997        36.1        74.8         53.6
## # ... with 50 more rows
```
…
population_growth
```

```
## # A tibble: 142 x 4
## # Groups:   country [142]
##    country       Year_1952  Year_2007  pop_grow
##    <fct>             <dbl>      <dbl>     <dbl>
##  1 China         556263527 1318683096 762419569
##  2 India         372000000 1110396331 738396331
##  3 United States 157553000  301139947 143586947
##  4 Indonesia      82052000  223547000 141495000
##  5 Brazil         56602560  190010647 133408087
##  6 Pakistan       41346560  169270617 127924057
##  7 Bangladesh     46886859  150448339 103561480
##  8 Nigeria        33119096  135031164 101912068
##  9 Mexico         30144317  108700891  78556574
## 10 Philippines    22438691   91077287  68638596
## # ... with 132 more rows
```
…
gdp_country
```

```
## # A tibble: 142 x 4
## # Groups:   country [142]
##    country          gdp_1952 gdp_2007 gdp_change
##    <fct>               <dbl>    <dbl>      <dbl>
##  1 Singapore           2315.   47143.     44828.
##  2 Norway             10095.   49357.     39262.
##  3 Hong Kong, China    3054.   39725.     36671.
##  4 Ireland             5210.   40676.     35466.
##  5 Austria             6137.   36126.     29989.
##  6 United States      13990.   42952.     28961.
##  7 Iceland             7268.   36181.     28913.
##  8 Japan               3217.   31656.     28439.
##  9 Netherlands         8942.   36798.     27856.
## 10 Taiwan              1207.   28718.     27511.
## # ... with 132 more rows
```
…
